^C:\USERS\YOICHIROU\DOCUMENTS\LTEAM_SEISAKU2\LTEAM_SEISAKU\TEMP\DIRECTXTX\DX11\RELEASE\BC.OBJ|C:\USERS\YOICHIROU\DOCUMENTS\LTEAM_SEISAKU2\LTEAM_SEISAKU\TEMP\DIRECTXTX\DX11\RELEASE\BC4BC5.OBJ|C:\USERS\YOICHIROU\DOCUMENTS\LTEAM_SEISAKU2\LTEAM_SEISAKU\TEMP\DIRECTXTX\DX11\RELEASE\BC6HBC7.OBJ|C:\USERS\YOICHIROU\DOCUMENTS\LTEAM_SEISAKU2\LTEAM_SEISAKU\TEMP\DIRECTXTX\DX11\RELEASE\BCDIRECTCOMPUTE.OBJ|C:\USERS\YOICHIROU\DOCUMENTS\LTEAM_SEISAKU2\LTEAM_SEISAKU\TEMP\DIRECTXTX\DX11\RELEASE\DIRECTXTEXCOMPRESS.OBJ|C:\USERS\YOICHIROU\DOCUMENTS\LTEAM_SEISAKU2\LTEAM_SEISAKU\TEMP\DIRECTXTX\DX11\RELEASE\DIRECTXTEXCOMPRESSGPU.OBJ|C:\USERS\YOICHIROU\DOCUMENTS\LTEAM_SEISAKU2\LTEAM_SEISAKU\TEMP\DIRECTXTX\DX11\RELEASE\DIRECTXTEXCONVERT.OBJ|C:\USERS\YOICHIROU\DOCUMENTS\LTEAM_SEISAKU2\LTEAM_SEISAKU\TEMP\DIRECTXTX\DX11\RELEASE\DIRECTXTEXD3D11.OBJ|C:\USERS\YOICHIROU\DOCUMENTS\LTEAM_SEISAKU2\LTEAM_SEISAKU\TEMP\DIRECTXTX\DX11\RELEASE\DIRECTXTEXDDS.OBJ|C:\USERS\YOICHIROU\DOCUMENTS\LTEAM_SEISAKU2\LTEAM_SEISAKU\TEMP\DIRECTXTX\DX11\RELEASE\DIRECTXTEXFLIPROTATE.OBJ|C:\USERS\YOICHIROU\DOCUMENTS\LTEAM_SEISAKU2\LTEAM_SEISAKU\TEMP\DIRECTXTX\DX11\RELEASE\DIRECTXTEXIMAGE.OBJ|C:\USERS\YOICHIROU\DOCUMENTS\LTEAM_SEISAKU2\LTEAM_SEISAKU\TEMP\DIRECTXTX\DX11\RELEASE\DIRECTXTEXMIPMAPS.OBJ|C:\USERS\YOICHIROU\DOCUMENTS\LTEAM_SEISAKU2\LTEAM_SEISAKU\TEMP\DIRECTXTX\DX11\RELEASE\DIRECTXTEXMISC.OBJ|C:\USERS\YOICHIROU\DOCUMENTS\LTEAM_SEISAKU2\LTEAM_SEISAKU\TEMP\DIRECTXTX\DX11\RELEASE\DIRECTXTEXNORMALMAPS.OBJ|C:\USERS\YOICHIROU\DOCUMENTS\LTEAM_SEISAKU2\LTEAM_SEISAKU\TEMP\DIRECTXTX\DX11\RELEASE\DIRECTXTEXPMALPHA.OBJ|C:\USERS\YOICHIROU\DOCUMENTS\LTEAM_SEISAKU2\LTEAM_SEISAKU\TEMP\DIRECTXTX\DX11\RELEASE\DIRECTXTEXRESIZE.OBJ|C:\USERS\YOICHIROU\DOCUMENTS\LTEAM_SEISAKU2\LTEAM_SEISAKU\TEMP\DIRECTXTX\DX11\RELEASE\DIRECTXTEXTGA.OBJ|C:\USERS\YOICHIROU\DOCUMENTS\LTEAM_SEISAKU2\LTEAM_SEISAKU\TEMP\DIRECTXTX\DX11\RELEASE\DIRECTXTEXUTIL.OBJ|C:\USERS\YOICHIROU\DOCUMENTS\LTEAM_SEISAKU2\LTEAM_SEISAKU\TEMP\DIRECTXTX\DX11\RELEASE\DIRECTXTEXWIC.OBJ
C:\PROGRAM FILES (X86)\MICROSOFT VISUAL STUDIO 14.0\VC\BIN\VCTIP.EXE
C:\WINDOWS\SYSTEM32\TZRES.DLL
C:\WINDOWS\GLOBALIZATION\SORTING\SORTDEFAULT.NLS
C:\USERS\YOICHIROU\DOCUMENTS\LTEAM_SEISAKU2\LTEAM_SEISAKU\TEMP\DIRECTXTX\DX11\RELEASE\BC.OBJ
C:\USERS\YOICHIROU\DOCUMENTS\LTEAM_SEISAKU2\LTEAM_SEISAKU\TEMP\DIRECTXTX\DX11\RELEASE\BC4BC5.OBJ
C:\USERS\YOICHIROU\DOCUMENTS\LTEAM_SEISAKU2\LTEAM_SEISAKU\TEMP\DIRECTXTX\DX11\RELEASE\BC6HBC7.OBJ
C:\USERS\YOICHIROU\DOCUMENTS\LTEAM_SEISAKU2\LTEAM_SEISAKU\TEMP\DIRECTXTX\DX11\RELEASE\BCDIRECTCOMPUTE.OBJ
C:\USERS\YOICHIROU\DOCUMENTS\LTEAM_SEISAKU2\LTEAM_SEISAKU\TEMP\DIRECTXTX\DX11\RELEASE\DIRECTXTEXCOMPRESS.OBJ
C:\USERS\YOICHIROU\DOCUMENTS\LTEAM_SEISAKU2\LTEAM_SEISAKU\TEMP\DIRECTXTX\DX11\RELEASE\DIRECTXTEXCOMPRESSGPU.OBJ
C:\USERS\YOICHIROU\DOCUMENTS\LTEAM_SEISAKU2\LTEAM_SEISAKU\TEMP\DIRECTXTX\DX11\RELEASE\DIRECTXTEXCONVERT.OBJ
C:\USERS\YOICHIROU\DOCUMENTS\LTEAM_SEISAKU2\LTEAM_SEISAKU\TEMP\DIRECTXTX\DX11\RELEASE\DIRECTXTEXD3D11.OBJ
C:\USERS\YOICHIROU\DOCUMENTS\LTEAM_SEISAKU2\LTEAM_SEISAKU\TEMP\DIRECTXTX\DX11\RELEASE\DIRECTXTEXDDS.OBJ
C:\USERS\YOICHIROU\DOCUMENTS\LTEAM_SEISAKU2\LTEAM_SEISAKU\TEMP\DIRECTXTX\DX11\RELEASE\DIRECTXTEXFLIPROTATE.OBJ
C:\USERS\YOICHIROU\DOCUMENTS\LTEAM_SEISAKU2\LTEAM_SEISAKU\TEMP\DIRECTXTX\DX11\RELEASE\DIRECTXTEXIMAGE.OBJ
C:\USERS\YOICHIROU\DOCUMENTS\LTEAM_SEISAKU2\LTEAM_SEISAKU\TEMP\DIRECTXTX\DX11\RELEASE\DIRECTXTEXMIPMAPS.OBJ
C:\USERS\YOICHIROU\DOCUMENTS\LTEAM_SEISAKU2\LTEAM_SEISAKU\TEMP\DIRECTXTX\DX11\RELEASE\DIRECTXTEXMISC.OBJ
C:\USERS\YOICHIROU\DOCUMENTS\LTEAM_SEISAKU2\LTEAM_SEISAKU\TEMP\DIRECTXTX\DX11\RELEASE\DIRECTXTEXNORMALMAPS.OBJ
C:\USERS\YOICHIROU\DOCUMENTS\LTEAM_SEISAKU2\LTEAM_SEISAKU\TEMP\DIRECTXTX\DX11\RELEASE\DIRECTXTEXPMALPHA.OBJ
C:\USERS\YOICHIROU\DOCUMENTS\LTEAM_SEISAKU2\LTEAM_SEISAKU\TEMP\DIRECTXTX\DX11\RELEASE\DIRECTXTEXRESIZE.OBJ
C:\USERS\YOICHIROU\DOCUMENTS\LTEAM_SEISAKU2\LTEAM_SEISAKU\TEMP\DIRECTXTX\DX11\RELEASE\DIRECTXTEXTGA.OBJ
C:\USERS\YOICHIROU\DOCUMENTS\LTEAM_SEISAKU2\LTEAM_SEISAKU\TEMP\DIRECTXTX\DX11\RELEASE\DIRECTXTEXUTIL.OBJ
C:\USERS\YOICHIROU\DOCUMENTS\LTEAM_SEISAKU2\LTEAM_SEISAKU\TEMP\DIRECTXTX\DX11\RELEASE\DIRECTXTEXWIC.OBJ
