^C:\USERS\TAKUTO\DESKTOP\BASECROSS-MASTER\LIBS\DIRECTXTEX\BC.CPP
C:\USERS\TAKUTO\DESKTOP\BASECROSS-MASTER\SIMPLSAMPLE015\TEMP\DIRECTXTX\DX11\DEBUG\DIRECTXTEX.PDB
^C:\USERS\TAKUTO\DESKTOP\BASECROSS-MASTER\LIBS\DIRECTXTEX\BC4BC5.CPP
C:\USERS\TAKUTO\DESKTOP\BASECROSS-MASTER\SIMPLSAMPLE015\TEMP\DIRECTXTX\DX11\DEBUG\DIRECTXTEX.PDB
^C:\USERS\TAKUTO\DESKTOP\BASECROSS-MASTER\LIBS\DIRECTXTEX\BC6HBC7.CPP
C:\USERS\TAKUTO\DESKTOP\BASECROSS-MASTER\SIMPLSAMPLE015\TEMP\DIRECTXTX\DX11\DEBUG\DIRECTXTEX.PDB
^C:\USERS\TAKUTO\DESKTOP\BASECROSS-MASTER\LIBS\DIRECTXTEX\BCDIRECTCOMPUTE.CPP
C:\USERS\TAKUTO\DESKTOP\BASECROSS-MASTER\SIMPLSAMPLE015\TEMP\DIRECTXTX\DX11\DEBUG\DIRECTXTEX.PDB
^C:\USERS\TAKUTO\DESKTOP\BASECROSS-MASTER\LIBS\DIRECTXTEX\DIRECTXTEXCOMPRESS.CPP
C:\USERS\TAKUTO\DESKTOP\BASECROSS-MASTER\SIMPLSAMPLE015\TEMP\DIRECTXTX\DX11\DEBUG\DIRECTXTEX.PDB
^C:\USERS\TAKUTO\DESKTOP\BASECROSS-MASTER\LIBS\DIRECTXTEX\DIRECTXTEXCOMPRESSGPU.CPP
C:\USERS\TAKUTO\DESKTOP\BASECROSS-MASTER\SIMPLSAMPLE015\TEMP\DIRECTXTX\DX11\DEBUG\DIRECTXTEX.PDB
^C:\USERS\TAKUTO\DESKTOP\BASECROSS-MASTER\LIBS\DIRECTXTEX\DIRECTXTEXCONVERT.CPP
C:\USERS\TAKUTO\DESKTOP\BASECROSS-MASTER\SIMPLSAMPLE015\TEMP\DIRECTXTX\DX11\DEBUG\DIRECTXTEX.PDB
^C:\USERS\TAKUTO\DESKTOP\BASECROSS-MASTER\LIBS\DIRECTXTEX\DIRECTXTEXD3D11.CPP
C:\USERS\TAKUTO\DESKTOP\BASECROSS-MASTER\SIMPLSAMPLE015\TEMP\DIRECTXTX\DX11\DEBUG\DIRECTXTEX.PDB
^C:\USERS\TAKUTO\DESKTOP\BASECROSS-MASTER\LIBS\DIRECTXTEX\DIRECTXTEXDDS.CPP
C:\USERS\TAKUTO\DESKTOP\BASECROSS-MASTER\SIMPLSAMPLE015\TEMP\DIRECTXTX\DX11\DEBUG\DIRECTXTEX.PDB
^C:\USERS\TAKUTO\DESKTOP\BASECROSS-MASTER\LIBS\DIRECTXTEX\DIRECTXTEXFLIPROTATE.CPP
C:\USERS\TAKUTO\DESKTOP\BASECROSS-MASTER\SIMPLSAMPLE015\TEMP\DIRECTXTX\DX11\DEBUG\DIRECTXTEX.PDB
^C:\USERS\TAKUTO\DESKTOP\BASECROSS-MASTER\LIBS\DIRECTXTEX\DIRECTXTEXIMAGE.CPP
C:\USERS\TAKUTO\DESKTOP\BASECROSS-MASTER\SIMPLSAMPLE015\TEMP\DIRECTXTX\DX11\DEBUG\DIRECTXTEX.PDB
^C:\USERS\TAKUTO\DESKTOP\BASECROSS-MASTER\LIBS\DIRECTXTEX\DIRECTXTEXMIPMAPS.CPP
C:\USERS\TAKUTO\DESKTOP\BASECROSS-MASTER\SIMPLSAMPLE015\TEMP\DIRECTXTX\DX11\DEBUG\DIRECTXTEX.PDB
^C:\USERS\TAKUTO\DESKTOP\BASECROSS-MASTER\LIBS\DIRECTXTEX\DIRECTXTEXMISC.CPP
C:\USERS\TAKUTO\DESKTOP\BASECROSS-MASTER\SIMPLSAMPLE015\TEMP\DIRECTXTX\DX11\DEBUG\DIRECTXTEX.PDB
^C:\USERS\TAKUTO\DESKTOP\BASECROSS-MASTER\LIBS\DIRECTXTEX\DIRECTXTEXNORMALMAPS.CPP
C:\USERS\TAKUTO\DESKTOP\BASECROSS-MASTER\SIMPLSAMPLE015\TEMP\DIRECTXTX\DX11\DEBUG\DIRECTXTEX.PDB
^C:\USERS\TAKUTO\DESKTOP\BASECROSS-MASTER\LIBS\DIRECTXTEX\DIRECTXTEXPMALPHA.CPP
C:\USERS\TAKUTO\DESKTOP\BASECROSS-MASTER\SIMPLSAMPLE015\TEMP\DIRECTXTX\DX11\DEBUG\DIRECTXTEX.PDB
^C:\USERS\TAKUTO\DESKTOP\BASECROSS-MASTER\LIBS\DIRECTXTEX\DIRECTXTEXRESIZE.CPP
C:\USERS\TAKUTO\DESKTOP\BASECROSS-MASTER\SIMPLSAMPLE015\TEMP\DIRECTXTX\DX11\DEBUG\DIRECTXTEX.PDB
^C:\USERS\TAKUTO\DESKTOP\BASECROSS-MASTER\LIBS\DIRECTXTEX\DIRECTXTEXTGA.CPP
C:\USERS\TAKUTO\DESKTOP\BASECROSS-MASTER\SIMPLSAMPLE015\TEMP\DIRECTXTX\DX11\DEBUG\DIRECTXTEX.PDB
^C:\USERS\TAKUTO\DESKTOP\BASECROSS-MASTER\LIBS\DIRECTXTEX\DIRECTXTEXWIC.CPP
C:\USERS\TAKUTO\DESKTOP\BASECROSS-MASTER\SIMPLSAMPLE015\TEMP\DIRECTXTX\DX11\DEBUG\DIRECTXTEX.PDB
^C:\USERS\TAKUTO\DOCUMENTS\LTEAM_SEISAKU2\LIBS\DIRECTXTEX\BC.CPP
C:\USERS\TAKUTO\DOCUMENTS\LTEAM_SEISAKU2\LTEAM_SEISAKU\TEMP\DIRECTXTX\DX11\DEBUG\DIRECTXTEX.PDB
^C:\USERS\TAKUTO\DOCUMENTS\LTEAM_SEISAKU2\LIBS\DIRECTXTEX\BC4BC5.CPP
C:\USERS\TAKUTO\DOCUMENTS\LTEAM_SEISAKU2\LTEAM_SEISAKU\TEMP\DIRECTXTX\DX11\DEBUG\DIRECTXTEX.PDB
^C:\USERS\TAKUTO\DOCUMENTS\LTEAM_SEISAKU2\LIBS\DIRECTXTEX\BC6HBC7.CPP
C:\USERS\TAKUTO\DOCUMENTS\LTEAM_SEISAKU2\LTEAM_SEISAKU\TEMP\DIRECTXTX\DX11\DEBUG\DIRECTXTEX.PDB
^C:\USERS\TAKUTO\DOCUMENTS\LTEAM_SEISAKU2\LIBS\DIRECTXTEX\BCDIRECTCOMPUTE.CPP
C:\USERS\TAKUTO\DOCUMENTS\LTEAM_SEISAKU2\LTEAM_SEISAKU\TEMP\DIRECTXTX\DX11\DEBUG\DIRECTXTEX.PDB
^C:\USERS\TAKUTO\DOCUMENTS\LTEAM_SEISAKU2\LIBS\DIRECTXTEX\DIRECTXTEXCOMPRESS.CPP
C:\USERS\TAKUTO\DOCUMENTS\LTEAM_SEISAKU2\LTEAM_SEISAKU\TEMP\DIRECTXTX\DX11\DEBUG\DIRECTXTEX.PDB
^C:\USERS\TAKUTO\DOCUMENTS\LTEAM_SEISAKU2\LIBS\DIRECTXTEX\DIRECTXTEXCOMPRESSGPU.CPP
C:\USERS\TAKUTO\DOCUMENTS\LTEAM_SEISAKU2\LTEAM_SEISAKU\TEMP\DIRECTXTX\DX11\DEBUG\DIRECTXTEX.PDB
^C:\USERS\TAKUTO\DOCUMENTS\LTEAM_SEISAKU2\LIBS\DIRECTXTEX\DIRECTXTEXCONVERT.CPP
C:\USERS\TAKUTO\DOCUMENTS\LTEAM_SEISAKU2\LTEAM_SEISAKU\TEMP\DIRECTXTX\DX11\DEBUG\DIRECTXTEX.PDB
^C:\USERS\TAKUTO\DOCUMENTS\LTEAM_SEISAKU2\LIBS\DIRECTXTEX\DIRECTXTEXD3D11.CPP
C:\USERS\TAKUTO\DOCUMENTS\LTEAM_SEISAKU2\LTEAM_SEISAKU\TEMP\DIRECTXTX\DX11\DEBUG\DIRECTXTEX.PDB
^C:\USERS\TAKUTO\DOCUMENTS\LTEAM_SEISAKU2\LIBS\DIRECTXTEX\DIRECTXTEXDDS.CPP
C:\USERS\TAKUTO\DOCUMENTS\LTEAM_SEISAKU2\LTEAM_SEISAKU\TEMP\DIRECTXTX\DX11\DEBUG\DIRECTXTEX.PDB
^C:\USERS\TAKUTO\DOCUMENTS\LTEAM_SEISAKU2\LIBS\DIRECTXTEX\DIRECTXTEXFLIPROTATE.CPP
C:\USERS\TAKUTO\DOCUMENTS\LTEAM_SEISAKU2\LTEAM_SEISAKU\TEMP\DIRECTXTX\DX11\DEBUG\DIRECTXTEX.PDB
^C:\USERS\TAKUTO\DOCUMENTS\LTEAM_SEISAKU2\LIBS\DIRECTXTEX\DIRECTXTEXIMAGE.CPP
C:\USERS\TAKUTO\DOCUMENTS\LTEAM_SEISAKU2\LTEAM_SEISAKU\TEMP\DIRECTXTX\DX11\DEBUG\DIRECTXTEX.PDB
^C:\USERS\TAKUTO\DOCUMENTS\LTEAM_SEISAKU2\LIBS\DIRECTXTEX\DIRECTXTEXMIPMAPS.CPP
C:\USERS\TAKUTO\DOCUMENTS\LTEAM_SEISAKU2\LTEAM_SEISAKU\TEMP\DIRECTXTX\DX11\DEBUG\DIRECTXTEX.PDB
^C:\USERS\TAKUTO\DOCUMENTS\LTEAM_SEISAKU2\LIBS\DIRECTXTEX\DIRECTXTEXMISC.CPP
C:\USERS\TAKUTO\DOCUMENTS\LTEAM_SEISAKU2\LTEAM_SEISAKU\TEMP\DIRECTXTX\DX11\DEBUG\DIRECTXTEX.PDB
^C:\USERS\TAKUTO\DOCUMENTS\LTEAM_SEISAKU2\LIBS\DIRECTXTEX\DIRECTXTEXNORMALMAPS.CPP
C:\USERS\TAKUTO\DOCUMENTS\LTEAM_SEISAKU2\LTEAM_SEISAKU\TEMP\DIRECTXTX\DX11\DEBUG\DIRECTXTEX.PDB
^C:\USERS\TAKUTO\DOCUMENTS\LTEAM_SEISAKU2\LIBS\DIRECTXTEX\DIRECTXTEXPMALPHA.CPP
C:\USERS\TAKUTO\DOCUMENTS\LTEAM_SEISAKU2\LTEAM_SEISAKU\TEMP\DIRECTXTX\DX11\DEBUG\DIRECTXTEX.PDB
^C:\USERS\TAKUTO\DOCUMENTS\LTEAM_SEISAKU2\LIBS\DIRECTXTEX\DIRECTXTEXRESIZE.CPP
C:\USERS\TAKUTO\DOCUMENTS\LTEAM_SEISAKU2\LTEAM_SEISAKU\TEMP\DIRECTXTX\DX11\DEBUG\DIRECTXTEX.PDB
^C:\USERS\TAKUTO\DOCUMENTS\LTEAM_SEISAKU2\LIBS\DIRECTXTEX\DIRECTXTEXTGA.CPP
C:\USERS\TAKUTO\DOCUMENTS\LTEAM_SEISAKU2\LTEAM_SEISAKU\TEMP\DIRECTXTX\DX11\DEBUG\DIRECTXTEX.PDB
^C:\USERS\TAKUTO\DOCUMENTS\LTEAM_SEISAKU2\LIBS\DIRECTXTEX\DIRECTXTEXWIC.CPP
C:\USERS\TAKUTO\DOCUMENTS\LTEAM_SEISAKU2\LTEAM_SEISAKU\TEMP\DIRECTXTX\DX11\DEBUG\DIRECTXTEX.PDB
^C:\USERS\YOICHIROU\DOCUMENTS\LTEAM_SEISAKU2\LIBS\DIRECTXTEX\DIRECTXTEXUTIL.CPP
C:\USERS\YOICHIROU\DOCUMENTS\LTEAM_SEISAKU2\LTEAM_SEISAKU\TEMP\DIRECTXTX\DX11\DEBUG\DIRECTXTEX.PCH
C:\USERS\YOICHIROU\DOCUMENTS\LTEAM_SEISAKU2\LTEAM_SEISAKU\TEMP\DIRECTXTX\DX11\DEBUG\DIRECTXTEX.PDB
C:\USERS\YOICHIROU\DOCUMENTS\LTEAM_SEISAKU2\LTEAM_SEISAKU\TEMP\DIRECTXTX\DX11\DEBUG\DIRECTXTEX.IDB
C:\USERS\YOICHIROU\DOCUMENTS\LTEAM_SEISAKU2\LTEAM_SEISAKU\TEMP\DIRECTXTX\DX11\DEBUG\DIRECTXTEXUTIL.OBJ
^C:\USERS\YOICHIROU\DOCUMENTS\LTEAM_SEISAKU2\LIBS\DIRECTXTEX\BC.CPP|C:\USERS\YOICHIROU\DOCUMENTS\LTEAM_SEISAKU2\LIBS\DIRECTXTEX\BC4BC5.CPP|C:\USERS\YOICHIROU\DOCUMENTS\LTEAM_SEISAKU2\LIBS\DIRECTXTEX\BC6HBC7.CPP|C:\USERS\YOICHIROU\DOCUMENTS\LTEAM_SEISAKU2\LIBS\DIRECTXTEX\BCDIRECTCOMPUTE.CPP|C:\USERS\YOICHIROU\DOCUMENTS\LTEAM_SEISAKU2\LIBS\DIRECTXTEX\DIRECTXTEXCOMPRESS.CPP|C:\USERS\YOICHIROU\DOCUMENTS\LTEAM_SEISAKU2\LIBS\DIRECTXTEX\DIRECTXTEXCOMPRESSGPU.CPP|C:\USERS\YOICHIROU\DOCUMENTS\LTEAM_SEISAKU2\LIBS\DIRECTXTEX\DIRECTXTEXCONVERT.CPP|C:\USERS\YOICHIROU\DOCUMENTS\LTEAM_SEISAKU2\LIBS\DIRECTXTEX\DIRECTXTEXD3D11.CPP|C:\USERS\YOICHIROU\DOCUMENTS\LTEAM_SEISAKU2\LIBS\DIRECTXTEX\DIRECTXTEXDDS.CPP|C:\USERS\YOICHIROU\DOCUMENTS\LTEAM_SEISAKU2\LIBS\DIRECTXTEX\DIRECTXTEXFLIPROTATE.CPP|C:\USERS\YOICHIROU\DOCUMENTS\LTEAM_SEISAKU2\LIBS\DIRECTXTEX\DIRECTXTEXIMAGE.CPP|C:\USERS\YOICHIROU\DOCUMENTS\LTEAM_SEISAKU2\LIBS\DIRECTXTEX\DIRECTXTEXMIPMAPS.CPP|C:\USERS\YOICHIROU\DOCUMENTS\LTEAM_SEISAKU2\LIBS\DIRECTXTEX\DIRECTXTEXMISC.CPP|C:\USERS\YOICHIROU\DOCUMENTS\LTEAM_SEISAKU2\LIBS\DIRECTXTEX\DIRECTXTEXNORMALMAPS.CPP|C:\USERS\YOICHIROU\DOCUMENTS\LTEAM_SEISAKU2\LIBS\DIRECTXTEX\DIRECTXTEXPMALPHA.CPP|C:\USERS\YOICHIROU\DOCUMENTS\LTEAM_SEISAKU2\LIBS\DIRECTXTEX\DIRECTXTEXRESIZE.CPP|C:\USERS\YOICHIROU\DOCUMENTS\LTEAM_SEISAKU2\LIBS\DIRECTXTEX\DIRECTXTEXTGA.CPP|C:\USERS\YOICHIROU\DOCUMENTS\LTEAM_SEISAKU2\LIBS\DIRECTXTEX\DIRECTXTEXWIC.CPP
C:\USERS\YOICHIROU\DOCUMENTS\LTEAM_SEISAKU2\LTEAM_SEISAKU\TEMP\DIRECTXTX\DX11\DEBUG\DIRECTXTEX.PDB
C:\USERS\YOICHIROU\DOCUMENTS\LTEAM_SEISAKU2\LTEAM_SEISAKU\TEMP\DIRECTXTX\DX11\DEBUG\DIRECTXTEX.IDB
C:\USERS\YOICHIROU\DOCUMENTS\LTEAM_SEISAKU2\LTEAM_SEISAKU\TEMP\DIRECTXTX\DX11\DEBUG\DIRECTXTEXWIC.OBJ
C:\USERS\YOICHIROU\DOCUMENTS\LTEAM_SEISAKU2\LTEAM_SEISAKU\TEMP\DIRECTXTX\DX11\DEBUG\DIRECTXTEXTGA.OBJ
C:\USERS\YOICHIROU\DOCUMENTS\LTEAM_SEISAKU2\LTEAM_SEISAKU\TEMP\DIRECTXTX\DX11\DEBUG\DIRECTXTEXRESIZE.OBJ
C:\USERS\YOICHIROU\DOCUMENTS\LTEAM_SEISAKU2\LTEAM_SEISAKU\TEMP\DIRECTXTX\DX11\DEBUG\DIRECTXTEXPMALPHA.OBJ
C:\USERS\YOICHIROU\DOCUMENTS\LTEAM_SEISAKU2\LTEAM_SEISAKU\TEMP\DIRECTXTX\DX11\DEBUG\DIRECTXTEXNORMALMAPS.OBJ
C:\USERS\YOICHIROU\DOCUMENTS\LTEAM_SEISAKU2\LTEAM_SEISAKU\TEMP\DIRECTXTX\DX11\DEBUG\DIRECTXTEXMISC.OBJ
C:\USERS\YOICHIROU\DOCUMENTS\LTEAM_SEISAKU2\LTEAM_SEISAKU\TEMP\DIRECTXTX\DX11\DEBUG\DIRECTXTEXMIPMAPS.OBJ
C:\USERS\YOICHIROU\DOCUMENTS\LTEAM_SEISAKU2\LTEAM_SEISAKU\TEMP\DIRECTXTX\DX11\DEBUG\DIRECTXTEXIMAGE.OBJ
C:\USERS\YOICHIROU\DOCUMENTS\LTEAM_SEISAKU2\LTEAM_SEISAKU\TEMP\DIRECTXTX\DX11\DEBUG\DIRECTXTEXFLIPROTATE.OBJ
C:\USERS\YOICHIROU\DOCUMENTS\LTEAM_SEISAKU2\LTEAM_SEISAKU\TEMP\DIRECTXTX\DX11\DEBUG\DIRECTXTEXDDS.OBJ
C:\USERS\YOICHIROU\DOCUMENTS\LTEAM_SEISAKU2\LTEAM_SEISAKU\TEMP\DIRECTXTX\DX11\DEBUG\DIRECTXTEXD3D11.OBJ
C:\USERS\YOICHIROU\DOCUMENTS\LTEAM_SEISAKU2\LTEAM_SEISAKU\TEMP\DIRECTXTX\DX11\DEBUG\DIRECTXTEXCONVERT.OBJ
C:\USERS\YOICHIROU\DOCUMENTS\LTEAM_SEISAKU2\LTEAM_SEISAKU\TEMP\DIRECTXTX\DX11\DEBUG\DIRECTXTEXCOMPRESSGPU.OBJ
C:\USERS\YOICHIROU\DOCUMENTS\LTEAM_SEISAKU2\LTEAM_SEISAKU\TEMP\DIRECTXTX\DX11\DEBUG\DIRECTXTEXCOMPRESS.OBJ
C:\USERS\YOICHIROU\DOCUMENTS\LTEAM_SEISAKU2\LTEAM_SEISAKU\TEMP\DIRECTXTX\DX11\DEBUG\BCDIRECTCOMPUTE.OBJ
C:\USERS\YOICHIROU\DOCUMENTS\LTEAM_SEISAKU2\LTEAM_SEISAKU\TEMP\DIRECTXTX\DX11\DEBUG\BC6HBC7.OBJ
C:\USERS\YOICHIROU\DOCUMENTS\LTEAM_SEISAKU2\LTEAM_SEISAKU\TEMP\DIRECTXTX\DX11\DEBUG\BC4BC5.OBJ
C:\USERS\YOICHIROU\DOCUMENTS\LTEAM_SEISAKU2\LTEAM_SEISAKU\TEMP\DIRECTXTX\DX11\DEBUG\BC.OBJ
^C:\USERS\YOICHIROU\DOCUMENTS\LTEAM_SEISAKU2\LIBS\DIRECTXTEX\BC.CPP
C:\USERS\YOICHIROU\DOCUMENTS\LTEAM_SEISAKU2\LTEAM_SEISAKU\TEMP\DIRECTXTX\DX11\DEBUG\DIRECTXTEX.PDB
^C:\USERS\YOICHIROU\DOCUMENTS\LTEAM_SEISAKU2\LIBS\DIRECTXTEX\BC4BC5.CPP
C:\USERS\YOICHIROU\DOCUMENTS\LTEAM_SEISAKU2\LTEAM_SEISAKU\TEMP\DIRECTXTX\DX11\DEBUG\DIRECTXTEX.PDB
^C:\USERS\YOICHIROU\DOCUMENTS\LTEAM_SEISAKU2\LIBS\DIRECTXTEX\BC6HBC7.CPP
C:\USERS\YOICHIROU\DOCUMENTS\LTEAM_SEISAKU2\LTEAM_SEISAKU\TEMP\DIRECTXTX\DX11\DEBUG\DIRECTXTEX.PDB
^C:\USERS\YOICHIROU\DOCUMENTS\LTEAM_SEISAKU2\LIBS\DIRECTXTEX\BCDIRECTCOMPUTE.CPP
C:\USERS\YOICHIROU\DOCUMENTS\LTEAM_SEISAKU2\LTEAM_SEISAKU\TEMP\DIRECTXTX\DX11\DEBUG\DIRECTXTEX.PDB
^C:\USERS\YOICHIROU\DOCUMENTS\LTEAM_SEISAKU2\LIBS\DIRECTXTEX\DIRECTXTEXCOMPRESS.CPP
C:\USERS\YOICHIROU\DOCUMENTS\LTEAM_SEISAKU2\LTEAM_SEISAKU\TEMP\DIRECTXTX\DX11\DEBUG\DIRECTXTEX.PDB
^C:\USERS\YOICHIROU\DOCUMENTS\LTEAM_SEISAKU2\LIBS\DIRECTXTEX\DIRECTXTEXCOMPRESSGPU.CPP
C:\USERS\YOICHIROU\DOCUMENTS\LTEAM_SEISAKU2\LTEAM_SEISAKU\TEMP\DIRECTXTX\DX11\DEBUG\DIRECTXTEX.PDB
^C:\USERS\YOICHIROU\DOCUMENTS\LTEAM_SEISAKU2\LIBS\DIRECTXTEX\DIRECTXTEXCONVERT.CPP
C:\USERS\YOICHIROU\DOCUMENTS\LTEAM_SEISAKU2\LTEAM_SEISAKU\TEMP\DIRECTXTX\DX11\DEBUG\DIRECTXTEX.PDB
^C:\USERS\YOICHIROU\DOCUMENTS\LTEAM_SEISAKU2\LIBS\DIRECTXTEX\DIRECTXTEXD3D11.CPP
C:\USERS\YOICHIROU\DOCUMENTS\LTEAM_SEISAKU2\LTEAM_SEISAKU\TEMP\DIRECTXTX\DX11\DEBUG\DIRECTXTEX.PDB
^C:\USERS\YOICHIROU\DOCUMENTS\LTEAM_SEISAKU2\LIBS\DIRECTXTEX\DIRECTXTEXDDS.CPP
C:\USERS\YOICHIROU\DOCUMENTS\LTEAM_SEISAKU2\LTEAM_SEISAKU\TEMP\DIRECTXTX\DX11\DEBUG\DIRECTXTEX.PDB
^C:\USERS\YOICHIROU\DOCUMENTS\LTEAM_SEISAKU2\LIBS\DIRECTXTEX\DIRECTXTEXFLIPROTATE.CPP
C:\USERS\YOICHIROU\DOCUMENTS\LTEAM_SEISAKU2\LTEAM_SEISAKU\TEMP\DIRECTXTX\DX11\DEBUG\DIRECTXTEX.PDB
^C:\USERS\YOICHIROU\DOCUMENTS\LTEAM_SEISAKU2\LIBS\DIRECTXTEX\DIRECTXTEXIMAGE.CPP
C:\USERS\YOICHIROU\DOCUMENTS\LTEAM_SEISAKU2\LTEAM_SEISAKU\TEMP\DIRECTXTX\DX11\DEBUG\DIRECTXTEX.PDB
^C:\USERS\YOICHIROU\DOCUMENTS\LTEAM_SEISAKU2\LIBS\DIRECTXTEX\DIRECTXTEXMIPMAPS.CPP
C:\USERS\YOICHIROU\DOCUMENTS\LTEAM_SEISAKU2\LTEAM_SEISAKU\TEMP\DIRECTXTX\DX11\DEBUG\DIRECTXTEX.PDB
^C:\USERS\YOICHIROU\DOCUMENTS\LTEAM_SEISAKU2\LIBS\DIRECTXTEX\DIRECTXTEXMISC.CPP
C:\USERS\YOICHIROU\DOCUMENTS\LTEAM_SEISAKU2\LTEAM_SEISAKU\TEMP\DIRECTXTX\DX11\DEBUG\DIRECTXTEX.PDB
^C:\USERS\YOICHIROU\DOCUMENTS\LTEAM_SEISAKU2\LIBS\DIRECTXTEX\DIRECTXTEXNORMALMAPS.CPP
C:\USERS\YOICHIROU\DOCUMENTS\LTEAM_SEISAKU2\LTEAM_SEISAKU\TEMP\DIRECTXTX\DX11\DEBUG\DIRECTXTEX.PDB
^C:\USERS\YOICHIROU\DOCUMENTS\LTEAM_SEISAKU2\LIBS\DIRECTXTEX\DIRECTXTEXPMALPHA.CPP
C:\USERS\YOICHIROU\DOCUMENTS\LTEAM_SEISAKU2\LTEAM_SEISAKU\TEMP\DIRECTXTX\DX11\DEBUG\DIRECTXTEX.PDB
^C:\USERS\YOICHIROU\DOCUMENTS\LTEAM_SEISAKU2\LIBS\DIRECTXTEX\DIRECTXTEXRESIZE.CPP
C:\USERS\YOICHIROU\DOCUMENTS\LTEAM_SEISAKU2\LTEAM_SEISAKU\TEMP\DIRECTXTX\DX11\DEBUG\DIRECTXTEX.PDB
^C:\USERS\YOICHIROU\DOCUMENTS\LTEAM_SEISAKU2\LIBS\DIRECTXTEX\DIRECTXTEXTGA.CPP
C:\USERS\YOICHIROU\DOCUMENTS\LTEAM_SEISAKU2\LTEAM_SEISAKU\TEMP\DIRECTXTX\DX11\DEBUG\DIRECTXTEX.PDB
^C:\USERS\YOICHIROU\DOCUMENTS\LTEAM_SEISAKU2\LIBS\DIRECTXTEX\DIRECTXTEXWIC.CPP
C:\USERS\YOICHIROU\DOCUMENTS\LTEAM_SEISAKU2\LTEAM_SEISAKU\TEMP\DIRECTXTX\DX11\DEBUG\DIRECTXTEX.PDB
